\babel@toc {ngerman}{}
\contentsline {section}{\numberline {1}Einleitung}{3}{}%
\contentsline {subsection}{\numberline {1.1}Schlechtere Recheneffizienz}{3}{}%
\contentsline {subsection}{\numberline {1.2}Grafische Rechenfehler}{3}{}%
\contentsline {section}{\numberline {2}Berechnung}{4}{}%
\contentsline {subsection}{\numberline {2.1}Kollision}{4}{}%
\contentsline {subsection}{\numberline {2.2}Kollisionspunkt}{4}{}%
\contentsline {subsection}{\numberline {2.3}Elastischer Stoß}{5}{}%
\contentsline {section}{\numberline {3}Sourcecode}{10}{}%
\contentsline {subsection}{\numberline {3.1}Ball.java}{10}{}%
\contentsline {subsection}{\numberline {3.2}MainFramegen.java}{15}{}%
