\relax 
\providecommand\babel@aux[2]{}
\@nameuse{bbl@beforestart}
\catcode `"\active 
\babel@aux{ngerman}{}
\@writefile{toc}{\contentsline {section}{\numberline {1}Einleitung}{3}{}\protected@file@percent }
\newlabel{c:einleitung}{{1}{3}}
\@writefile{toc}{\contentsline {subsection}{\numberline {1.1}Schlechtere Recheneffizienz}{3}{}\protected@file@percent }
\newlabel{c:unterschied}{{1.1}{3}}
\@writefile{toc}{\contentsline {subsection}{\numberline {1.2}Grafische Rechenfehler}{3}{}\protected@file@percent }
\newlabel{c:quantisierung}{{1.2}{3}}
\@writefile{toc}{\contentsline {section}{\numberline {2}Berechnung}{4}{}\protected@file@percent }
\newlabel{c:berechnung}{{2}{4}}
\@writefile{toc}{\contentsline {subsection}{\numberline {2.1}Kollision}{4}{}\protected@file@percent }
\newlabel{c:kollision}{{2.1}{4}}
\@writefile{lof}{\contentsline {figure}{\numberline {1}{\ignorespaces Abhängigkeit der Abstände}}{4}{}\protected@file@percent }
\newlabel{fig:kol1}{{1}{4}}
\@writefile{toc}{\contentsline {subsection}{\numberline {2.2}Kollisionspunkt}{4}{}\protected@file@percent }
\newlabel{c:kollisionspunkt}{{2.2}{4}}
\citation{elastischerstoss}
\newlabel{fig:kol2}{{2.2}{5}}
\@writefile{lof}{\contentsline {figure}{\numberline {2}{\ignorespaces Schnittfläche}}{5}{}\protected@file@percent }
\@writefile{toc}{\contentsline {subsection}{\numberline {2.3}Elastischer Stoß}{5}{}\protected@file@percent }
\bibstyle{IEEEtran}
\bibdata{literatur}
\bibcite{elastischerstoss}{{1}{}{{}}{{}}}
\@writefile{toc}{\contentsline {section}{\numberline {3}Sourcecode}{10}{}\protected@file@percent }
\@writefile{toc}{\contentsline {subsection}{\numberline {3.1}Ball.java}{10}{}\protected@file@percent }
\@writefile{lol}{\contentsline {lstlisting}{\numberline {1}Ball.Java}{10}{}\protected@file@percent }
\@writefile{toc}{\contentsline {subsection}{\numberline {3.2}MainFramegen.java}{15}{}\protected@file@percent }
\@writefile{lol}{\contentsline {lstlisting}{\numberline {2}MainFrame.Java}{15}{}\protected@file@percent }
\newlabel{LastPage}{{}{20}}
\xdef\lastpage@lastpage{20}
\gdef\lastpage@lastpageHy{}
\providecommand\NAT@force@numbers{}\NAT@force@numbers
\gdef \@abspage@last{21}
